rd_redirect_url,rd_total,yt_redirect_url,yt_total,tw_redirect_url,tw_total
libredd.it,6,invidious.snopyta.org,5,nitter.net,5
libreddit.40two.app,-,vid.puffyan.us,-,nitter.bcow.xyz,-
libreddit.bcow.xyz,-,yewtu.be,-,nitter.mailstation.de,-
libreddit.silkky.cloud,-,ytb.trom.tf,-,nitter.namazso.eu,-
libreddit.spike.codes,-,ytprivate.com,-,twitter.censors.us,-
reddit.invak.id,-,-,-,-,-
